[
    {  
        "text":"Don’t cry because it’s over, smile because it happened.",
        "by":"Ludwig Jacobowski"
     },
    {  
        "text":"Don't wait, the time will never be just right",
        "by":"Napoleon Hill"
     },
     {  
        "text":"It is far better to be alone, than to be in bad company.",
        "by":"George Washington"
     },
     {  
        "text":"If you cannot do great things, do small things in a great way.",
        "by":"Napoleon Hill"
     },
     {  
        "text":"The journey of a thousand miles begins with one step.",
        "by":"Lao Tzu"
     },
     {  
        "text":"It feels good to be lost in the right direction.",
        "by":"Unknown author"
     },
     {  
        "text":"Don’t gain the world and lose your soul, wisdom is better than silver or gold.",
        "by":"Bob Marley"
     },
     {  
        "text":"My life is my message.",
        "by":"Mahatma Gandhi"
     }
     
]